…
    ## Rows: 705 Columns: 9
    ## ── Column specification ────────────────────────────────────────────────────────
    ## Delimiter: ","
    ## chr (1): Brood
    ## dbl (5): Year, Month, Date, Male, Female
    ## lgl (3): ...7, ...8, ...9
    ## 
    ## ℹ Use `spec()` to retrieve the full column specification for this data.
    ## ℹ Specify the column types or set `show_col_types = FALSE` to quiet this message.

``` r
ray
```

    ## # A tibble: 705 × 9
    ##     Year Month  Date Brood  Male Female ...7  ...8  ...9 
    ##    <dbl> <dbl> <dbl> <chr> <dbl>  <dbl> <lgl> <lgl> <lgl>
    ##  1  2017     5    27 <NA>      1      0 NA    NA    NA   
    ##  2  2017     7    10 <NA>      4      3 NA    NA    NA   
    ##  3  2017     7    22 <NA>      0      1 NA    NA    NA   
    ##  4  2017     8     7 <NA>      3      2 NA    NA    NA   
    ##  5  2017     9     4 <NA>      1      1 NA    NA    NA   
    ##  6  2017     9     7 A         0      4 NA    NA    NA   
    ##  7  2017     9     7 B         4      1 NA    NA    NA   
    ##  8  2017     9    15 <NA>      2      3 NA    NA    NA   
    ##  9  2017     9    17 <NA>      1      2 NA    NA    NA   
    ## 10  2017     9    23 <NA>      3      0 NA    NA    NA   
    ## # … with 695 more rows
    ## # ℹ Use `print(n = ...)` to see more rows
…
    ## Rows: 6220 Columns: 12
    ## ── Column specification ────────────────────────────────────────────────────────
    ## Delimiter: ","
    ## chr  (1): Pond
    ## dbl (11): Year, Month, Date, TDS, pH, DO, Ammonium, Nitrite, Hardness, Alkal...
    ## 
    ## ℹ Use `spec()` to retrieve the full column specification for this data.
    ## ℹ Specify the column types or set `show_col_types = FALSE` to quiet this message.

``` r
water
```

    ## # A tibble: 6,220 × 12
    ##     Year Month  Date Pond    TDS    pH    DO Ammonium Nitrite Hardness Alkalin…¹
    ##    <dbl> <dbl> <dbl> <chr> <dbl> <dbl> <dbl>    <dbl>   <dbl>    <dbl>     <dbl>
    ##  1  2020     6    27 L1       NA     7   6.5        0    0.02      102        68
    ##  2  2020     6    27 L2       NA     7   6.5        0    0.02      102        68
    ##  3  2020     6    27 L3       NA     7   6.5        0    0.02      102        68
    ##  4  2020     6    27 L4       NA     7   6.5        0    0.02      102        68
    ##  5  2020     6    27 L5       NA     7   6.5        0    0.02      102        68
    ##  6  2020     6    27 L6       NA     7   6.5        0    0.02      102        68
    ##  7  2020     6    27 R1       NA     7   6.5        0    0.02       51        68
    ##  8  2020     6    27 R2       NA     7   6.5        0    0.02       51        68
    ##  9  2020     6    27 R3       NA     7   6.5        0    0.02       51        68
    ## 10  2020     6    27 R4       NA     7   6.5        0    0.02       51        68
    ## # … with 6,210 more rows, 1 more variable: Temperature <dbl>, and abbreviated
    ## #   variable name ¹​Alkalinity
    ## # ℹ Use `print(n = ...)` to see more rows, and `colnames()` to see all variable names
…
    ## `summarise()` has grouped output by 'hatch_date', 'halfterm'. You can override
    ## using the `.groups` argument.
    ## Joining, by = "mo_date"

``` r
temp_ray
```

    ## # A tibble: 24 × 4
    ##    m_ratio event      mo_date    mean_temp
    ##      <dbl> <chr>      <date>         <dbl>
    ##  1   0.571 hatch_date 2020-09-01      29.6
    ##  2   0.414 hatch_date 2020-10-01      28.6
    ##  3   0.604 hatch_date 2020-11-01      28.7
    ##  4   0.604 halfterm   2020-09-01      29.6
    ##  5   0.333 hatch_date 2020-12-01      27.7
    ##  6   0.333 halfterm   2020-10-01      28.6
    ##  7   0.429 hatch_date 2021-01-01      27.1
    ##  8   0.429 halfterm   2020-11-01      28.7
    ##  9   0.429 conception 2020-09-01      29.6
    ## 10   0.421 hatch_date 2021-02-01      28.4
    ## # … with 14 more rows
    ## # ℹ Use `print(n = ...)` to see more rows
…
